﻿{
"@context":"https://schema.org",
"@type":"ItemList",
"itemListElement":[
{"@type":"ListItem",
"position":1, 
"url":"https://localhost:44377/zh-TW/Topic/Detail/5"},
{"@type":"ListItem",
"position":2, 
"url":"https://localhost:44377/zh-TW/Topic/Detail/6"},
{"@type":"ListItem",
"position":3, 
"url":"https://localhost:44377/zh-TW/Topic/Detail/1"},
{"@type":"ListItem",
"position":4, 
"url":"https://localhost:44377/zh-TW/Topic/Detail/4"}
]}
